%YAML 1.1
%TAG !u! tag:unity3d.com,2011:
--- !u!114 &11400000
MonoBehaviour:
  m_ObjectHideFlags: 0
  m_CorrespondingSourceObject: {fileID: 0}
  m_PrefabInstance: {fileID: 0}
  m_PrefabAsset: {fileID: 0}
  m_GameObject: {fileID: 0}
  m_Enabled: 1
  m_EditorHideFlags: 0
  m_Script: {fileID: 11500000, guid: 7612acbc1a4a4ed0afa5f4ccbe42bee4, type: 3}
  m_Name: MRTKExamplesHubConfigurationProfile
  m_EditorClassIdentifier: 
  isCustomProfile: 0
  targetExperienceScale: 3
  enableCameraSystem: 1
  cameraProfile: {fileID: 11400000, guid: 0447581e7bd59f64fbb28151c65a3dc4, type: 2}
  cameraSystemType:
    reference: Microsoft.MixedReality.Toolkit.CameraSystem.MixedRealityCameraSystem,
      Microsoft.MixedReality.Toolkit.Services.CameraSystem
  enableInputSystem: 1
  inputSystemProfile: {fileID: 11400000, guid: bec5ceabcd10992439d51532332137f9, type: 2}
  inputSystemType:
    reference: Microsoft.MixedReality.Toolkit.Input.MixedRealityInputSystem, Microsoft.MixedReality.Toolkit.Services.InputSystem
  enableBoundarySystem: 0
  boundarySystemType:
    reference: Microsoft.MixedReality.Toolkit.Boundary.MixedRealityBoundarySystem,
      Microsoft.MixedReality.Toolkit.Services.BoundarySystem
  boundaryVisualizationProfile: {fileID: 11400000, guid: 6d28cce596b44bd3897ca86f8b24e076,
    type: 2}
  enableTeleportSystem: 0
  teleportSystemType:
    reference: Microsoft.MixedReality.Toolkit.Teleport.MixedRealityTeleportSystem,
      Microsoft.MixedReality.Toolkit.Services.TeleportSystem
  enableSpatialAwarenessSystem: 1
  spatialAwarenessSystemType:
    reference: Microsoft.MixedReality.Toolkit.SpatialAwareness.MixedRealitySpatialAwarenessSystem,
      Microsoft.MixedReality.Toolkit.Services.SpatialAwarenessSystem
  spatialAwarenessSystemProfile: {fileID: 11400000, guid: 3ea2b5c1a6bd325419115bda69ef3186,
    type: 2}
  diagnosticsSystemProfile: {fileID: 11400000, guid: 478436bd1083882479a52d067e98e537,
    type: 2}
  enableDiagnosticsSystem: 0
  diagnosticsSystemType:
    reference: Microsoft.MixedReality.Toolkit.Diagnostics.MixedRealityDiagnosticsSystem,
      Microsoft.MixedReality.Toolkit.Services.DiagnosticsSystem
  sceneSystemProfile: {fileID: 11400000, guid: 804bab7b8e8e6e545a0924260c4f5c3f, type: 2}
  enableSceneSystem: 1
  sceneSystemType:
    reference: Microsoft.MixedReality.Toolkit.SceneSystem.MixedRealitySceneSystem,
      Microsoft.MixedReality.Toolkit.Services.SceneSystem
  registeredServiceProvidersProfile: {fileID: 11400000, guid: ac2fb1c077158d74dba65bebd28ce63f,
    type: 2}
  useServiceInspectors: 1
  renderDepthBuffer: 0
  enableVerboseLogging: 0
